<svg width="24" height="24" viewBox="0 0 24 24" fill="none" xmlns="http://www.w3.org/2000/svg">
  <mask id="a" style="mask-type:alpha" maskUnits="userSpaceOnUse" x="0" y="0" width="24" height="24">
    <path fill="#D9D9D9" d="M0 0h24v24H0z"/>
  </mask>
  <g mask="url(#a)">
    <path d="m12.049 13.82 2.9 2.9a.949.949 0 0 0 .7.276.948.948 0 0 0 .7-.275.948.948 0 0 0 .275-.7.948.948 0 0 0-.275-.7l-2.9-2.9 2.9-2.9a.948.948 0 0 0 .275-.7.948.948 0 0 0-.275-.7.948.948 0 0 0-.7-.275.948.948 0 0 0-.7.275l-2.9 2.9-2.9-2.9a.948.948 0 0 0-.7-.275.948.948 0 0 0-.7.275.948.948 0 0 0-.275.7c0 .283.091.517.275.7l2.9 2.9-2.9 2.9a.948.948 0 0 0-.275.7c0 .283.091.517.275.7a.948.948 0 0 0 .7.275.948.948 0 0 0 .7-.275l2.9-2.9Zm0 8.6a9.737 9.737 0 0 1-3.9-.787 10.099 10.099 0 0 1-3.175-2.137c-.9-.9-1.613-1.958-2.138-3.175a9.738 9.738 0 0 1-.787-3.9 9.74 9.74 0 0 1 .787-3.9 10.099 10.099 0 0 1 2.138-3.175c.9-.9 1.958-1.613 3.175-2.138a9.737 9.737 0 0 1 3.9-.787 9.74 9.74 0 0 1 3.9.787 10.098 10.098 0 0 1 3.175 2.138c.9.9 1.612 1.958 2.137 3.175a9.738 9.738 0 0 1 .788 3.9 9.738 9.738 0 0 1-.788 3.9 10.098 10.098 0 0 1-2.137 3.175c-.9.9-1.958 1.612-3.175 2.137a9.737 9.737 0 0 1-3.9.788Zm0-2c2.233 0 4.125-.774 5.675-2.324 1.55-1.55 2.325-3.442 2.325-5.675 0-2.233-.775-4.125-2.325-5.675-1.55-1.55-3.442-2.325-5.675-2.325-2.234 0-4.125.775-5.675 2.325-1.55 1.55-2.325 3.442-2.325 5.675 0 2.233.775 4.125 2.325 5.675 1.55 1.55 3.441 2.325 5.675 2.325Z"
          fill="#151D32"/>
  </g>
</svg>
