<svg width="300" height="200" viewBox="0 0 300 200" fill="none" xmlns="http://www.w3.org/2000/svg">
<path fill-rule="evenodd" clip-rule="evenodd" d="M144.744 98.2016C144.744 100.607 143.787 102.913 142.084 104.613C140.381 106.314 138.071 107.269 135.661 107.269H25.0317C22.6236 107.269 20.313 106.314 18.6093 104.613C16.9068 102.913 15.9492 100.607 15.9492 98.2016V55.4087C15.9492 53.0046 16.9068 50.6978 18.6093 48.997C20.313 47.2973 22.6236 46.3413 25.0317 46.3413H135.661C138.071 46.3413 140.381 47.2973 142.084 48.997C143.787 50.6978 144.744 53.0046 144.744 55.4087V98.2016Z" fill="var(--colors-category-french-high1)"/>
<path d="M46.2042 87.1708L44.3537 93.2533L34.5723 93.285L45.5074 60.1338L55.3327 60.1021L66.4825 93.1822L56.7011 93.214L54.8112 87.1435L46.2042 87.1708ZM50.3192 69.1454C50.2053 69.9274 50.0355 70.9042 49.8065 72.0767C49.5786 73.2492 49.3354 74.2993 49.0779 75.2257L47.7457 80.0482L53.2237 80.0307L51.9035 75.2169C51.6394 74.2632 51.3831 73.2 51.1333 72.0297C50.8824 70.8582 50.7126 69.8968 50.6238 69.1454H50.3192Z" fill="var(--colors-category-french-low2)"/>
<path d="M84.6345 60.0079C88.0254 59.997 90.6362 60.7331 92.4669 62.2174C94.2976 63.7016 95.2168 65.8181 95.2267 68.5667C95.2322 70.506 94.7961 72.0843 93.9153 73.3017C93.0355 74.5202 91.6978 75.393 89.9032 75.9191V76.0066C91.9618 76.3172 93.5943 77.1441 94.8016 78.4862C96.009 79.8272 96.6159 81.4678 96.6214 83.406C96.6323 86.5605 95.5236 88.9657 93.2974 90.6216C91.0711 92.2776 87.8139 93.1133 83.5236 93.1275L70.83 93.168L70.7227 60.0528L84.6345 60.0079ZM80.2412 72.7384L82.8925 72.7297C83.8785 72.7264 84.6235 72.4857 85.1297 72.0067C85.6348 71.5276 85.8868 70.8254 85.8835 69.899C85.8802 69.0021 85.6249 68.3305 85.1166 67.8831C84.6071 67.4369 83.861 67.2148 82.875 67.2181L80.2236 67.2269L80.2412 72.7384ZM80.2839 85.9326L83.6748 85.9217C84.7758 85.9184 85.6446 85.6329 86.2801 85.0675C86.9166 84.5009 87.2322 83.7254 87.2289 82.7421C87.2267 81.8736 86.9057 81.1878 86.2658 80.6836C85.6271 80.1794 84.7419 79.9289 83.6123 79.9322L80.2642 79.9431L80.2839 85.9326Z" fill="var(--colors-category-french-low2)"/>
<path d="M110.423 76.4607C110.433 79.4413 111.02 81.6813 112.185 83.1831C113.349 84.6837 115.091 85.4297 117.409 85.4231C118.887 85.4177 120.393 85.1672 121.927 84.6706C123.462 84.174 124.851 83.4893 126.095 82.6165L126.121 90.95C124.733 91.7648 123.141 92.385 121.345 92.8105C119.55 93.236 117.681 93.4514 115.739 93.458C111.189 93.4722 107.59 91.9355 104.943 88.8477C102.295 85.7611 100.963 81.6562 100.946 76.5351C100.93 71.3265 102.315 67.1844 105.102 64.1087C107.889 61.033 111.746 59.4864 116.673 59.4711C118.411 59.4656 120.028 59.6264 121.522 59.9545C123.015 60.2827 124.445 60.7771 125.809 61.4377L125.836 69.9877C124.559 69.0952 123.274 68.4477 121.983 68.0474C120.691 67.646 119.234 67.448 117.612 67.4535C115.148 67.4611 113.332 68.2049 112.163 69.6848C110.994 71.1646 110.415 73.4233 110.423 76.4607Z" fill="var(--colors-category-french-low2)"/>
<path fill-rule="evenodd" clip-rule="evenodd" d="M284.001 97.8603C284.001 100.266 283.043 102.571 281.341 104.272C279.637 105.973 277.326 106.928 274.918 106.928H164.287C161.879 106.928 159.569 105.973 157.866 104.272C156.163 102.571 155.206 100.266 155.206 97.8603V55.0674C155.206 52.6622 156.163 50.3565 157.866 48.6557C159.569 46.956 161.879 46 164.287 46H274.918C277.326 46 279.637 46.956 281.341 48.6557C283.043 50.3565 284.001 52.6622 284.001 55.0674V97.8603Z" fill="var(--colors-category-french-high1)"/>
<path d="M204.858 76.3076C204.875 81.4003 203.396 85.4341 200.42 88.4092C197.444 91.3843 193.304 92.8806 188 92.8981L176.436 92.9352L176.33 59.8201L187.764 59.7829C193.212 59.7654 197.419 61.2059 200.385 64.1044C203.351 67.0029 204.842 71.0706 204.858 76.3076ZM187.397 67.3365L185.831 67.3409L185.889 85.3532L187.976 85.3466C190.382 85.3379 192.219 84.5514 193.49 82.9852C194.76 81.4178 195.39 79.1876 195.381 76.2945C195.372 73.372 194.691 71.1461 193.338 69.617C191.985 68.0879 190.005 67.3277 187.397 67.3365Z" fill="var(--colors-category-french-low2)"/>
<path d="M232.017 85.6384L232.04 92.7556L210.129 92.8267L210.021 59.7115L231.411 59.6426L231.434 66.7598L219.521 66.7981L219.54 72.4409L230.582 72.4048L230.606 79.5231L219.563 79.5581L219.583 85.6777L232.017 85.6384Z" fill="var(--colors-category-french-low2)"/>
<path d="M238.019 59.6209L259.452 59.552L259.475 66.6703L247.52 66.7086L247.537 72.3503L258.623 72.3153L258.646 79.4325L247.56 79.4686L247.603 92.7055L238.126 92.7361L238.019 59.6209Z" fill="var(--colors-category-french-low2)"/>
<path fill-rule="evenodd" clip-rule="evenodd" d="M194.299 115.542C197.309 115.855 199.494 118.544 199.181 121.548C197.886 133.969 190.911 143.045 181.541 148.802C172.303 154.479 160.716 156.988 149.452 156.795C138.186 156.601 126.721 153.695 117.692 147.947C108.575 142.143 101.735 133.255 100.758 121.431C100.509 118.421 102.752 115.78 105.767 115.531C108.782 115.283 111.428 117.522 111.677 120.532C112.312 128.219 116.671 134.324 123.583 138.725C130.583 143.182 139.977 145.693 149.64 145.859C159.307 146.025 168.72 143.836 175.798 139.488C182.743 135.22 187.395 128.943 188.284 120.416C188.597 117.412 191.29 115.23 194.299 115.542Z" fill="var(--colors-category-french-high2)"/>
</svg>
