<svg width="300" height="200" viewBox="0 0 300 200" fill="none" xmlns="http://www.w3.org/2000/svg">
<mask id="mask0_465_2157" style="mask-type:luminance" maskUnits="userSpaceOnUse" x="45" y="5" width="201" height="163">
<path d="M245.739 5.34827H45.4355V167.65H245.739V5.34827Z" fill="white"/>
</mask>
<g mask="url(#mask0_465_2157)">
<path fill-rule="evenodd" clip-rule="evenodd" d="M148.972 49.1582C152.384 49.4687 159.739 46.4338 157.32 34.3005C155.056 22.9473 151.994 22.4647 152.243 11.4716C152.218 11.1821 152.012 10.9403 151.73 10.8687C151.448 10.798 151.152 10.9124 150.991 11.1562C145.826 19.1154 129.15 47.3552 148.972 49.1582Z" fill="var(--colors-category-artistic-high1)"/>
<path fill-rule="evenodd" clip-rule="evenodd" d="M153.339 48.2805C149.73 47.793 145.976 47.4965 141.94 48.2805C134.947 64.3492 135.799 108.275 141.762 180.546C141.9 182.23 142.877 183.732 144.361 184.546C146.427 185.697 148.476 185.965 150.524 184.944C152.179 184.187 153.289 182.591 153.42 180.778C158.397 112.687 159.634 48.9999 153.339 48.2805Z" fill="var(--colors-category-artistic-low1)"/>
<path fill-rule="evenodd" clip-rule="evenodd" d="M138.908 59.6895C145.019 58.7462 150.949 58.8806 156.736 60.0229C156.736 60.0229 155.796 49.0567 154.084 46.3681C153.072 44.7801 143.36 44.4438 142.626 45.8089C141.432 48.0278 140.284 48.8637 138.908 59.6895Z" fill="var(--colors-category-artistic-low2)"/>
<path fill-rule="evenodd" clip-rule="evenodd" d="M100.574 23.392C100.327 23.1422 99.967 23.0417 99.6261 23.1283C99.2853 23.2139 99.0162 23.4746 98.9185 23.8109C97.1972 29.996 92.0544 51.7323 105.958 48.1592C119.858 44.588 105.029 27.997 100.574 23.392Z" fill="var(--colors-category-artistic-high2)"/>
<path fill-rule="evenodd" clip-rule="evenodd" d="M110.433 46.6557C107.556 46.9652 104.621 47.4577 101.716 48.8179C101.232 49.0467 100.907 49.5144 100.861 50.0467C99.6665 67.6617 111.82 109.68 135.261 177.136C135.809 178.715 137.107 179.92 138.724 180.351C140.335 180.791 141.779 180.682 143.014 179.801C144.651 178.652 145.451 176.645 145.052 174.688C131.431 107.785 115.873 45.9393 110.433 46.6557Z" fill="var(--colors-category-artistic-low2)"/>
<path fill-rule="evenodd" clip-rule="evenodd" d="M99.6902 23.3799C99.9574 23.3101 100.231 23.4702 100.3 23.7373L104.174 38.5771C104.244 38.8443 104.084 39.1175 103.817 39.1872C103.55 39.257 103.277 39.0969 103.207 38.8297L99.3327 23.9899C99.263 23.7228 99.423 23.4496 99.6902 23.3799Z" fill="var(--colors-category-artistic-low1)"/>
<path d="M103.691 40.0825C104.454 40.0825 105.072 39.4651 105.072 38.7034C105.072 37.9418 104.454 37.3243 103.691 37.3243C102.928 37.3243 102.31 37.9418 102.31 38.7034C102.31 39.4651 102.928 40.0825 103.691 40.0825Z" fill="var(--colors-category-artistic-low1)"/>
<path fill-rule="evenodd" clip-rule="evenodd" d="M159.329 166.203L185.678 40.2856C191.193 40.5235 196.765 41.7463 202.524 43.7991L176.175 169.716C170.459 168.14 164.838 167.027 159.329 166.203Z" fill="var(--colors-category-artistic-low2)"/>
<path fill-rule="evenodd" clip-rule="evenodd" d="M185.679 40.2856C185.679 40.2856 194.593 27.0776 197.508 22.7582C197.659 22.5343 197.93 22.4249 198.194 22.4796C198.457 22.5353 198.661 22.7443 198.709 23.009C199.643 28.1483 202.504 43.8965 202.504 43.8965C197.493 41.9891 191.898 40.7702 185.679 40.2856Z" fill="var(--colors-category-artistic-high2)"/>
<path fill-rule="evenodd" clip-rule="evenodd" d="M176.175 169.716L175.184 174.455C174.295 178.703 169.799 181.365 165.15 180.396C160.501 179.427 157.45 175.19 158.339 170.941L159.329 166.203C165.041 166.791 170.683 167.884 176.175 169.716Z" fill="var(--colors-category-artistic-low1)"/>
</g>
<path fill-rule="evenodd" clip-rule="evenodd" d="M226.306 69.3373C226.306 68.1602 225.349 67.204 224.17 67.204H74.9103C73.7312 67.204 72.7744 68.1602 72.7744 69.3373V171.713C72.7744 172.891 73.7312 173.846 74.9103 173.846H224.17C225.349 173.846 226.306 172.891 226.306 171.713V69.3373Z" fill="var(--colors-category-artistic-high2)"/>
<mask id="mask1_465_2157" style="mask-type:luminance" maskUnits="userSpaceOnUse" x="72" y="67" width="155" height="107">
<path d="M226.306 69.3373C226.306 68.1602 225.349 67.204 224.17 67.204H74.9103C73.7312 67.204 72.7744 68.1602 72.7744 69.3373V171.713C72.7744 172.891 73.7312 173.846 74.9103 173.846H224.17C225.349 173.846 226.306 172.891 226.306 171.713V69.3373Z" fill="white"/>
</mask>
<g mask="url(#mask1_465_2157)">
<path fill-rule="evenodd" clip-rule="evenodd" d="M122.482 125.11C123.981 123.344 126.183 122.326 128.501 122.326C130.819 122.326 133.02 123.344 134.519 125.11C147.632 140.557 177.618 175.88 177.618 175.88H79.3838C79.3838 175.88 109.369 140.557 122.482 125.11Z" fill="var(--colors-category-artistic-low2)"/>
<path fill-rule="evenodd" clip-rule="evenodd" d="M183.543 105.391C185.037 103.477 187.333 102.357 189.764 102.357C192.196 102.357 194.491 103.477 195.986 105.391C211.568 125.346 251.027 175.88 251.027 175.88H128.501C128.501 175.88 167.96 125.346 183.543 105.391Z" fill="var(--colors-category-artistic-low1)"/>
<path d="M107.462 111.982C114.856 111.982 120.851 105.997 120.851 98.615C120.851 91.2325 114.856 85.2478 107.462 85.2478C100.067 85.2478 94.0723 91.2325 94.0723 98.615C94.0723 105.997 100.067 111.982 107.462 111.982Z" fill="var(--colors-category-artistic-normal)"/>
</g>
</svg>
