<svg width="300" height="200" viewBox="0 0 300 200" fill="none" xmlns="http://www.w3.org/2000/svg">
<path fill-rule="evenodd" clip-rule="evenodd" d="M256.549 51.2908C256.549 45.5018 251.864 40.8018 246.093 40.8018H128.725C122.954 40.8018 118.27 45.5018 118.27 51.2908V169.052C118.27 174.842 122.954 179.542 128.725 179.542H246.093C251.864 179.542 256.549 174.842 256.549 169.052V51.2908Z" fill="var(--colors-category-mathematics-high2)"/>
<mask id="mask0_465_2165" style="mask-type:luminance" maskUnits="userSpaceOnUse" x="118" y="40" width="139" height="140">
<path d="M256.549 51.2908C256.549 45.5018 251.864 40.8018 246.093 40.8018H128.725C122.954 40.8018 118.27 45.5018 118.27 51.2908V169.052C118.27 174.842 122.954 179.542 128.725 179.542H246.093C251.864 179.542 256.549 174.842 256.549 169.052V51.2908Z" fill="white"/>
</mask>
<g mask="url(#mask0_465_2165)">
<path d="M187.409 40.8018H118.27V110.172H187.409V40.8018Z" fill="var(--colors-category-mathematics-high2)"/>
<path d="M187.409 110.172H118.27V179.542H187.409V110.172Z" fill="var(--colors-category-mathematics-high2)"/>
<path d="M256.549 40.8018H187.409V110.172H256.549V40.8018Z" fill="var(--colors-category-mathematics-high2)"/>
<path d="M256.549 110.172H187.409V179.542H256.549V110.172Z" fill="var(--colors-category-mathematics-high2)"/>
</g>
<path fill-rule="evenodd" clip-rule="evenodd" d="M173.228 70.4988V80.4748H157.811V95.9438H147.868V80.4748H132.45V70.4988H147.868V55.0298H157.811V70.4988H173.228Z" fill="var(--colors-category-mathematics-low1)"/>
<path d="M242.368 70.5237H201.59V80.4487H242.368V70.5237Z" fill="var(--colors-category-mathematics-low1)"/>
<path d="M242.368 139.49H201.59V149.415H242.368V139.49Z" fill="var(--colors-category-mathematics-low1)"/>
<path d="M222.382 136.227C225.855 136.227 228.67 133.402 228.67 129.918C228.67 126.433 225.855 123.609 222.382 123.609C218.909 123.609 216.094 126.433 216.094 129.918C216.094 133.402 218.909 136.227 222.382 136.227Z" fill="var(--colors-category-mathematics-low1)"/>
<path d="M222.382 166.104C225.855 166.104 228.67 163.279 228.67 159.795C228.67 156.31 225.855 153.486 222.382 153.486C218.909 153.486 216.094 156.31 216.094 159.795C216.094 163.279 218.909 166.104 222.382 166.104Z" fill="var(--colors-category-mathematics-low1)"/>
<path fill-rule="evenodd" clip-rule="evenodd" d="M163.741 126.46L170.772 133.514L159.87 144.453L170.772 155.391L163.741 162.445L152.839 151.507L141.938 162.445L134.906 155.391L145.809 144.453L134.906 133.514L141.938 126.46L152.839 137.399L163.741 126.46Z" fill="var(--colors-category-mathematics-low1)"/>
<path d="M188.496 40.8018H186.32V179.542H188.496V40.8018Z" fill="var(--colors-category-mathematics-low1)"/>
<path fill-rule="evenodd" clip-rule="evenodd" d="M256.549 111.263V109.08H118.27V111.263H256.549Z" fill="var(--colors-category-mathematics-low1)"/>
<path fill-rule="evenodd" clip-rule="evenodd" d="M124.664 32.8008C125.695 30.0058 124.457 26.8818 121.796 25.5608C117.174 23.3478 112.285 21.5708 107.136 20.1918C104.254 19.4318 101.269 20.9908 100.236 23.7948C91.8966 46.3748 56.8445 141.455 48.6886 163.578C47.679 166.316 48.8461 169.381 51.4185 170.745C56.2036 173.201 61.195 175.04 66.3946 176.268C69.2222 176.911 72.0866 175.352 73.0923 172.624C81.283 150.476 116.375 55.2858 124.664 32.8008Z" fill="var(--colors-category-mathematics-low2)"/>
<mask id="mask1_465_2165" style="mask-type:luminance" maskUnits="userSpaceOnUse" x="48" y="20" width="78" height="157">
<path d="M124.664 32.8008C125.695 30.0058 124.457 26.8818 121.796 25.5608C117.174 23.3478 112.285 21.5708 107.136 20.1918C104.254 19.4318 101.269 20.9908 100.236 23.7948C91.8966 46.3748 56.8445 141.455 48.6886 163.578C47.679 166.316 48.8461 169.381 51.4185 170.745C56.2036 173.201 61.195 175.04 66.3946 176.268C69.2222 176.911 72.0866 175.352 73.0923 172.624C81.283 150.476 116.375 55.2858 124.664 32.8008Z" fill="white"/>
</mask>
<g mask="url(#mask1_465_2165)">
<path fill-rule="evenodd" clip-rule="evenodd" d="M94.3146 35.4228C93.2322 35.0208 92.679 33.8138 93.0797 32.7288C93.4794 31.6428 94.6823 31.0878 95.7647 31.4888L105.766 35.2018C106.849 35.6028 107.402 36.8098 107.001 37.8958C106.602 38.9808 105.399 39.5358 104.316 39.1348L94.3146 35.4228Z" fill="var(--colors-category-mathematics-high1)"/>
<path fill-rule="evenodd" clip-rule="evenodd" d="M88.8775 50.1718C87.7961 49.7698 87.243 48.5628 87.6426 47.4778C88.0433 46.3918 89.2463 45.8368 90.3277 46.2388L100.33 49.9508C101.412 50.3518 101.965 51.5588 101.565 52.6448C101.165 53.7298 99.9616 54.2848 98.8802 53.8838L88.8775 50.1718Z" fill="var(--colors-category-mathematics-high1)"/>
<path fill-rule="evenodd" clip-rule="evenodd" d="M83.4406 64.9207C82.3582 64.5197 81.805 63.3117 82.2057 62.2267C82.6053 61.1417 83.8083 60.5857 84.8897 60.9877L94.8924 64.6997C95.9738 65.1007 96.5279 66.3087 96.1273 67.3937C95.7276 68.4787 94.5246 69.0347 93.4422 68.6327L83.4406 64.9207Z" fill="var(--colors-category-mathematics-high1)"/>
<path fill-rule="evenodd" clip-rule="evenodd" d="M78.002 79.6698C76.9206 79.2688 76.3664 78.0618 76.7671 76.9758C77.1667 75.8908 78.3707 75.3358 79.4521 75.7368L89.4548 79.4488C90.5362 79.8508 91.0893 81.0578 90.6897 82.1428C90.289 83.2278 89.086 83.7838 88.0046 83.3818L78.002 79.6698Z" fill="var(--colors-category-mathematics-high1)"/>
<path fill-rule="evenodd" clip-rule="evenodd" d="M72.565 94.4189C71.4826 94.0179 70.9295 92.8109 71.3292 91.7249C71.7298 90.6399 72.9328 90.0849 74.0142 90.4859L84.0169 94.1979C85.0983 94.5999 85.6524 95.8069 85.2517 96.8919C84.8521 97.9779 83.6491 98.5329 82.5667 98.1309L72.565 94.4189Z" fill="var(--colors-category-mathematics-high1)"/>
<path fill-rule="evenodd" clip-rule="evenodd" d="M67.1279 109.169C66.0465 108.767 65.4924 107.56 65.893 106.475C66.2927 105.389 67.4957 104.834 68.5781 105.235L78.5798 108.948C79.6621 109.349 80.2153 110.556 79.8156 111.641C79.415 112.727 78.212 113.282 77.1306 112.881L67.1279 109.169Z" fill="var(--colors-category-mathematics-high1)"/>
<path fill-rule="evenodd" clip-rule="evenodd" d="M61.69 123.918C60.6086 123.516 60.0555 122.309 60.4551 121.224C60.8558 120.138 62.0588 119.583 63.1402 119.985L73.1429 123.697C74.2243 124.098 74.7774 125.305 74.3777 126.391C73.9781 127.476 72.7741 128.031 71.6927 127.63L61.69 123.918Z" fill="var(--colors-category-mathematics-high1)"/>
<path fill-rule="evenodd" clip-rule="evenodd" d="M56.2529 138.667C55.1715 138.266 54.6174 137.058 55.018 135.973C55.4177 134.888 56.6207 134.332 57.7031 134.734L67.7048 138.446C68.7872 138.847 69.3403 140.055 68.9396 141.14C68.54 142.225 67.337 142.781 66.2546 142.379L56.2529 138.667Z" fill="var(--colors-category-mathematics-high1)"/>
<path fill-rule="evenodd" clip-rule="evenodd" d="M50.815 153.416C49.7336 153.015 49.1805 151.808 49.5801 150.722C49.9808 149.637 51.1838 149.082 52.2652 149.483L62.2679 153.195C63.3493 153.597 63.9024 154.804 63.5027 155.889C63.1021 156.974 61.8991 157.53 60.8177 157.128L50.815 153.416Z" fill="var(--colors-category-mathematics-high1)"/>
</g>
<path fill-rule="evenodd" clip-rule="evenodd" d="M43 34.2308C43 32.6368 44.0336 31.2278 45.5505 30.7528C47.0674 30.2788 48.7159 30.8488 49.6189 32.1608C69.692 61.3198 129.545 148.265 146.534 172.944C147.42 174.231 147.521 175.905 146.797 177.289C146.072 178.674 144.642 179.542 143.083 179.542C121.384 179.542 61.9658 179.542 46.6439 179.542C44.6316 179.542 43 177.905 43 175.887C43 156.634 43 66.6568 43 34.2308ZM67.7824 98.2068C67.4664 97.7478 66.8894 97.5488 66.3581 97.7148C65.8279 97.8808 65.4661 98.3738 65.4661 98.9318C65.4661 110.783 65.4661 144.913 65.4661 154.481C65.4661 155.873 66.5904 157.002 67.9777 157.002C74.9066 157.002 94.3767 157.002 103.467 157.002C104.401 157.002 105.258 156.482 105.692 155.652C106.126 154.822 106.066 153.82 105.535 153.049C97.6857 141.646 75.097 108.834 67.7824 98.2068Z" fill="var(--colors-category-mathematics-low1)"/>
<mask id="mask2_465_2165" style="mask-type:luminance" maskUnits="userSpaceOnUse" x="43" y="30" width="105" height="150">
<path d="M43 34.2308C43 32.6368 44.0336 31.2278 45.5505 30.7528C47.0674 30.2788 48.7159 30.8488 49.6189 32.1608C69.692 61.3198 129.545 148.265 146.534 172.944C147.42 174.231 147.521 175.905 146.797 177.289C146.072 178.674 144.642 179.542 143.083 179.542C121.384 179.542 61.9658 179.542 46.6439 179.542C44.6316 179.542 43 177.905 43 175.887C43 156.634 43 66.6568 43 34.2308ZM67.7824 98.2068C67.4664 97.7478 66.8894 97.5488 66.3581 97.7148C65.8279 97.8808 65.4661 98.3738 65.4661 98.9318C65.4661 110.783 65.4661 144.913 65.4661 154.481C65.4661 155.873 66.5904 157.002 67.9777 157.002C74.9066 157.002 94.3767 157.002 103.467 157.002C104.401 157.002 105.258 156.482 105.692 155.652C106.126 154.822 106.066 153.82 105.535 153.049C97.6857 141.646 75.097 108.834 67.7824 98.2068Z" fill="white"/>
</mask>
<g mask="url(#mask2_465_2165)">
<path fill-rule="evenodd" clip-rule="evenodd" d="M41.4328 69.9919C40.2797 69.9919 39.3428 69.0519 39.3428 67.8949C39.3428 66.7369 40.2797 65.7979 41.4328 65.7979H52.0973C53.2504 65.7979 54.1873 66.7369 54.1873 67.8949C54.1873 69.0519 53.2504 69.9919 52.0973 69.9919H41.4328Z" fill="var(--colors-category-mathematics-high2)"/>
<path fill-rule="evenodd" clip-rule="evenodd" d="M41.4328 85.7169C40.2797 85.7169 39.3428 84.7779 39.3428 83.6209C39.3428 82.4629 40.2797 81.5239 41.4328 81.5239H52.0973C53.2504 81.5239 54.1873 82.4629 54.1873 83.6209C54.1873 84.7779 53.2504 85.7169 52.0973 85.7169H41.4328Z" fill="var(--colors-category-mathematics-high2)"/>
<path fill-rule="evenodd" clip-rule="evenodd" d="M41.4328 101.443C40.2797 101.443 39.3428 100.504 39.3428 99.3458C39.3428 98.1888 40.2797 97.2498 41.4328 97.2498H52.0973C53.2504 97.2498 54.1873 98.1888 54.1873 99.3458C54.1873 100.504 53.2504 101.443 52.0973 101.443H41.4328Z" fill="var(--colors-category-mathematics-high2)"/>
<path fill-rule="evenodd" clip-rule="evenodd" d="M41.4328 117.169C40.2797 117.169 39.3428 116.229 39.3428 115.072C39.3428 113.915 40.2797 112.975 41.4328 112.975H52.0973C53.2504 112.975 54.1873 113.915 54.1873 115.072C54.1873 116.229 53.2504 117.169 52.0973 117.169H41.4328Z" fill="var(--colors-category-mathematics-high2)"/>
<path fill-rule="evenodd" clip-rule="evenodd" d="M41.4328 132.895C40.2797 132.895 39.3428 131.955 39.3428 130.798C39.3428 129.641 40.2797 128.701 41.4328 128.701H52.0973C53.2504 128.701 54.1873 129.641 54.1873 130.798C54.1873 131.955 53.2504 132.895 52.0973 132.895H41.4328Z" fill="var(--colors-category-mathematics-high2)"/>
<path fill-rule="evenodd" clip-rule="evenodd" d="M41.4328 148.621C40.2797 148.621 39.3428 147.681 39.3428 146.524C39.3428 145.367 40.2797 144.427 41.4328 144.427H52.0973C53.2504 144.427 54.1873 145.367 54.1873 146.524C54.1873 147.681 53.2504 148.621 52.0973 148.621H41.4328Z" fill="var(--colors-category-mathematics-high2)"/>
<path fill-rule="evenodd" clip-rule="evenodd" d="M41.4328 164.347C40.2797 164.347 39.3428 163.407 39.3428 162.25C39.3428 161.093 40.2797 160.153 41.4328 160.153H52.0973C53.2504 160.153 54.1873 161.093 54.1873 162.25C54.1873 163.407 53.2504 164.347 52.0973 164.347H41.4328Z" fill="var(--colors-category-mathematics-high2)"/>
</g>
</svg>
