<svg width="300" height="200" viewBox="0 0 300 200" fill="none" xmlns="http://www.w3.org/2000/svg">
<path fill-rule="evenodd" clip-rule="evenodd" d="M242.644 35.4068C242.644 34.2948 242.202 33.2281 241.415 32.4422C240.626 31.6563 239.559 31.2141 238.445 31.2141C213.735 31.2141 87.504 31.2141 62.7934 31.2141C61.6795 31.2141 60.6111 31.6563 59.8239 32.4422C59.0366 33.2281 58.5938 34.2948 58.5938 35.4068C58.5938 53.4243 58.5938 124.18 58.5938 142.197C58.5938 143.309 59.0366 144.375 59.8239 145.161C60.6111 145.947 61.6795 146.389 62.7934 146.389C87.504 146.389 213.735 146.389 238.445 146.389C239.559 146.389 240.626 145.947 241.415 145.161C242.202 144.375 242.644 143.309 242.644 142.197C242.644 124.18 242.644 53.4243 242.644 35.4068Z" fill="var(--colors-category-world-low1)"/>
<path fill-rule="evenodd" clip-rule="evenodd" d="M251.501 35.4067V142.197C251.501 145.654 250.125 148.969 247.676 151.414C245.228 153.858 241.907 155.232 238.444 155.232H62.7926C59.3293 155.232 56.0088 153.858 53.5596 151.414C51.1116 148.969 49.7354 145.654 49.7354 142.197V35.4067C49.7354 31.9491 51.1116 28.6341 53.5596 26.189C56.0088 23.7451 59.3293 22.3711 62.7926 22.3711H238.444C241.907 22.3711 245.228 23.7451 247.676 26.189C250.125 28.6341 251.501 31.9491 251.501 35.4067ZM242.643 35.4067C242.643 34.2947 242.201 33.228 241.414 32.4421C240.626 31.6562 239.558 31.2141 238.444 31.2141H62.7926C61.6788 31.2141 60.6103 31.6562 59.8231 32.4421C59.0359 33.228 58.593 34.2947 58.593 35.4067V142.197C58.593 143.309 59.0359 144.375 59.8231 145.161C60.6103 145.947 61.6788 146.389 62.7926 146.389H238.444C239.558 146.389 240.626 145.947 241.414 145.161C242.201 144.375 242.643 143.309 242.643 142.197V35.4067Z" fill="var(--colors-category-world-high2)"/>
<path d="M150.619 123.729C169.941 123.729 185.605 108.091 185.605 88.8015C185.605 69.5116 169.941 53.874 150.619 53.874C131.297 53.874 115.634 69.5116 115.634 88.8015C115.634 108.091 131.297 123.729 150.619 123.729Z" fill="var(--colors-category-world-low2)"/>
<path fill-rule="evenodd" clip-rule="evenodd" d="M150.619 55.2559C132.061 55.2559 117.017 70.2748 117.017 88.8017C117.017 107.329 132.061 122.347 150.619 122.347C169.176 122.347 184.22 107.329 184.22 88.8017C184.22 70.2748 169.176 55.2559 150.619 55.2559ZM114.249 88.8017C114.249 68.7486 130.532 52.4924 150.619 52.4924C170.705 52.4924 186.988 68.7486 186.988 88.8017C186.988 108.855 170.705 125.111 150.619 125.111C130.532 125.111 114.249 108.855 114.249 88.8017Z" fill="var(--colors-category-world-high2)"/>
<path fill-rule="evenodd" clip-rule="evenodd" d="M148.332 123.655C140.854 114.017 136.4 101.925 136.4 88.8017C136.4 75.6787 140.854 63.586 148.332 53.9482" fill="var(--colors-category-world-low2)"/>
<path fill-rule="evenodd" clip-rule="evenodd" d="M149.18 52.8559C149.785 53.3232 149.895 54.1911 149.427 54.7943C142.13 64.1988 137.786 75.9961 137.786 88.8017C137.786 101.607 142.13 113.405 149.427 122.809C149.895 123.412 149.785 124.28 149.18 124.747C148.576 125.215 147.707 125.105 147.239 124.501C139.58 114.63 135.018 102.242 135.018 88.8017C135.018 75.3613 139.58 62.973 147.239 53.102C147.707 52.4988 148.576 52.3885 149.18 52.8559Z" fill="var(--colors-category-world-high2)"/>
<path fill-rule="evenodd" clip-rule="evenodd" d="M152.904 53.9482C160.382 63.586 164.836 75.6787 164.836 88.8017C164.836 101.925 160.382 114.017 152.904 123.655" fill="var(--colors-category-world-low2)"/>
<path fill-rule="evenodd" clip-rule="evenodd" d="M152.057 52.8559C152.661 52.3885 153.531 52.4988 153.999 53.102C161.658 62.973 166.22 75.3613 166.22 88.8017C166.22 102.242 161.658 114.63 153.999 124.501C153.531 125.105 152.661 125.215 152.057 124.747C151.453 124.28 151.342 123.412 151.81 122.809C159.108 113.405 163.452 101.607 163.452 88.8017C163.452 75.9961 159.108 64.1988 151.81 54.7943C151.342 54.1911 151.453 53.3232 152.057 52.8559Z" fill="var(--colors-category-world-high2)"/>
<path fill-rule="evenodd" clip-rule="evenodd" d="M116.933 77.2914C116.933 76.5283 117.552 75.9097 118.317 75.9097H182.92C183.684 75.9097 184.304 76.5283 184.304 77.2914C184.304 78.0545 183.684 78.6731 182.92 78.6731H118.317C117.552 78.6731 116.933 78.0545 116.933 77.2914Z" fill="var(--colors-category-world-high2)"/>
<path fill-rule="evenodd" clip-rule="evenodd" d="M116.933 100.312C116.933 99.5488 117.552 98.9302 118.317 98.9302H182.92C183.684 98.9302 184.304 99.5488 184.304 100.312C184.304 101.075 183.684 101.694 182.92 101.694H118.317C117.552 101.694 116.933 101.075 116.933 100.312Z" fill="var(--colors-category-world-high2)"/>
<path fill-rule="evenodd" clip-rule="evenodd" d="M96.696 149.563C96.4967 149.973 96.1424 150.286 95.7106 150.435C95.2788 150.584 94.806 150.555 94.3952 150.356C92.4321 149.403 89.0673 147.769 87.1043 146.815C86.6935 146.616 86.379 146.262 86.2296 145.831C86.0812 145.401 86.1089 144.928 86.3093 144.519C87.0113 143.076 88.0543 140.936 88.7562 139.495C89.1725 138.642 88.816 137.614 87.9612 137.198C86.4532 136.466 84.1347 135.34 82.3643 134.48C81.8284 134.22 81.4653 133.702 81.4055 133.109C81.3446 132.518 81.5959 131.937 82.0687 131.574C87.3412 127.525 100.672 117.287 106.446 112.852C106.963 112.455 107.662 112.385 108.249 112.669C108.835 112.954 109.211 113.546 109.216 114.198C109.287 121.471 109.45 138.26 109.514 144.901C109.521 145.496 109.217 146.052 108.714 146.37C108.21 146.688 107.577 146.723 107.041 146.463C105.271 145.603 102.953 144.478 101.444 143.745C100.589 143.331 99.5592 143.686 99.144 144.539C98.441 145.98 97.3991 148.12 96.696 149.563Z" fill="var(--colors-category-world-low2)"/>
<path fill-rule="evenodd" clip-rule="evenodd" d="M121.861 167.485C124.196 167.485 126.435 166.56 128.086 164.912C129.737 163.264 130.664 161.029 130.664 158.698C130.664 152.908 130.664 146.389 130.664 146.389H170.573V158.698C170.573 161.029 171.501 163.264 173.152 164.912C174.802 166.56 177.041 167.485 179.375 167.485C180.492 167.485 181.61 167.485 182.654 167.485C184.12 167.485 185.526 168.067 186.562 169.101C187.598 170.137 188.181 171.54 188.181 173.003C188.181 173.005 188.181 173.006 188.181 173.006C188.181 174.469 187.598 175.873 186.562 176.908C185.526 177.942 184.12 178.524 182.654 178.524C168.757 178.524 132.481 178.524 118.583 178.524C117.117 178.524 115.712 177.942 114.676 176.908C113.638 175.873 113.056 174.469 113.056 173.006C113.056 173.006 113.056 173.005 113.056 173.003C113.056 171.54 113.638 170.137 114.676 169.101C115.712 168.067 117.117 167.485 118.583 167.485C119.628 167.485 120.745 167.485 121.861 167.485Z" fill="var(--colors-category-world-high2)"/>
</svg>
